739344 942405 525
885171 844576 432
747360 827494 468
854738 976611 507
902091 763560 525
940415 900138 507
766439 754520 380
768546 888397 525
791719 839892 525
993039 941768 458
755756 776836 468
878690 887025 445
955469 910280 507
858704 888482 445
787212 920634 525
805251 992578 525
921585 790083 525
755555 852621 525
798561 957696 525
876912 841947 432
748000 723629 424
921475 794616 525
765299 717219 424
901231 799161 525
881314 945272 507
968742 938684 507
921204 951112 507
976309 935341 507
826802 816938 450
825653 777987 468
772671 948066 525
818230 851414 525
876664 947087 507
725230 796619 468
880747 730733 525
895595 742188 525
709109 824229 468
736470 927078 525
935207 750188 525
974463 930060 507
997797 979704 427
732805 727237 380
957217 981042 458
859339 783694 525
892726 977037 507
881349 994368 507
891691 952322 507
851424 923151 476
730936 770221 468
885632 826928 525
7145 2816 262
7952 6743 257
6629 6295 244
564 5940 238
4175 2941 238
4489 8085 262
1864 6359 262
1691 5261 238
2155 4541 238
3879 4906 215
6133 9274 262
4783 4727 197
3197 3215 168
4985 8849 262
8742 5592 262
8612 3702 262
6430 7163 257
711 4899 238
7788 5276 262
4586 5041 210
5748 4668 236
3647 3979 238
9330 3216 262
3634 7835 262
8742 5174 262
483 6468 262
8835 8887 185
2973 3388 199
2167 4104 238
3535 1218 217
463 4093 238
83 5959 238
7208 7135 195
3374 4537 238
178 4070 238
6271 3013 262
1935 8989 262
5346 9326 262
8581 51 262
5447 7516 262
9768 8674 260
2371 4020 238
6930 4878 262
6913 3300 262
1305 7776 262
7326 5385 262
9150 7886 252
4260 6783 262
3368 9681 262
4148 8209 262
996852 415301 525
842706 358703 525
785906 367956 509
872690 74740 525
830244 309651 509
901811 106550 525
770211 348153 509
715639 303126 509
860952 55736 525
936770 146938 525
797425 49350 509
852102 251693 525
871181 126041 525
978910 394431 525
841067 199165 525
855367 31837 525
760272 487049 509
912808 104808 525
746562 454362 509
784399 410092 509
894808 324250 525
969841 393278 525
966097 283965 525
789503 333770 509
945450 140555 525
859315 325730 525
829508 455875 509
778454 10667 509
810446 253717 509
996381 186989 525
878399 132178 525
729380 241420 509
779740 228986 509
964163 185466 525
734250 93829 509
865948 126057 525
947731 4799 525
861753 192779 525
870061 154243 525
865120 451329 525
852585 472674 525
804964 145112 509
754355 247895 509
864830 254020 525
773741 57231 509
936930 349546 525
984428 448983 525
708728 466126 509
706951 230897 509
759133 281273 509
734136 104990 509
809276 247829 509
757769 32816 509
955645 283672 525
736665 444755 509
748473 392335 509
849774 22117 525
768277 208451 509
996793 165456 525
792709 211469 509
877429 418400 525
775564 270222 509
730617 296323 509
856431 453318 525
984250 422421 525
946020 191067 525
877661 50108 525
826960 325217 509
795278 132809 509
777207 306770 509
778345 333883 509
924490 351619 525
784554 102355 509
735050 114536 509
718696 459235 509
842301 53273 525
796050 496485 509
779695 199554 509
760675 179825 509
834010 340033 509
801136 387702 509
911632 473072 525
953722 31685 525
811402 320933 509
878725 110751 525
779698 403047 509
870219 15201 525
772243 272952 509
988527 143637 525
857233 370808 525
971710 5013 525
741678 56412 509
983946 354593 525
949035 246926 525
894926 8750 525
946862 268975 525
780855 480969 509
957798 28738 525
701627 198274 509
889888 70221 525
625543 899648 525
125703 724598 509
64679 442594 449
134291 286623 443
80271 248340 443
163340 411271 449
826376 246054 509
211946 580021 470
980884 218375 525
854992 805610 525
689547 872988 525
236057 676884 509
169043 950442 525
325162 718003 509
80994 379569 443
549103 968653 525
157524 255459 443
871369 367004 525
17071 853770 525
33215 969229 525
989352 93373 525
776559 4568 509
124216 355121 443
74955 864874 525
619411 670411 509
893412 795243 525
151197 793908 509
371211 212272 443
478542 343108 449
747172 208392 509
794277 509970 509
551793 540285 452
213180 890175 525
461632 96456 449
789810 595563 509
27565 568573 470
87468 498659 449
975118 400694 525
134615 641999 509
700780 966473 525
934332 524110 525
781578 192338 509
377871 949006 525
586051 906590 525
516168 575239 452
348591 4617 443
197733 92128 383
913952 405632 525
658704 75433 509
798001 975836 525
